M48
;Layer_Color=9474304
;FILE_FORMAT=2:5
INCH,LZ
;TYPE=PLATED
T1F00S00C0.02800
T2F00S00C0.03000
T3F00S00C0.03150
T4F00S00C0.03937
T5F00S00C0.04016
T6F00S00C0.04016
T7F00S00C0.04016
T8F00S00C0.04724
T9F00S00C0.04724
T10F00S00C0.05118
T11F00S00C0.05118
T12F00S00C0.05709
T13F00S00C0.07677
T14F00S00C0.07874
T15F00S00C0.07874
T16F00S00C0.10630
T17F00S00C0.10630
T18F00S00C0.15748
%
T01
X0198Y00465
X0211Y008725
X06365Y0058
X06715Y0133
X0653
X06365Y01335
X0619Y0133
X03495Y0312
X03445Y03295
X0361043Y0318543
X0412Y03325
X0455Y03315
X047Y03085
X04935Y03195
X04115Y0382
X0406Y03875
X0396Y03955
X0381229Y0404622
X0586266Y032206
X0230453Y0441453
X0197882Y0439274
T02
X06195Y00585
X0654Y0058
X0671Y00575
T03
X013Y00155
X0140039
X01335Y01095
X0123461
X01235Y02015
X0133539
X0138539Y02985
X01285
T04
X0315205Y0039158
X0342795Y00392
X0328985Y0058842
X0315205Y0106158
X0342795Y01062
X0367205Y0106158
X0394795Y01062
X0419205Y0106158
X0446795Y01062
X0471205Y0106158
X0498795Y01062
X0485735Y0058842
X0499545Y00392
X0471955Y0039158
X0447295Y00392
X0419705Y0039158
X0395045Y00392
X0367455Y0039158
X0381235Y0058842
X0433485
X0537985
X0551795Y00392
X0524205Y0039158
X0523205Y0106158
X0550795Y01062
X0536985Y0125842
X0526705Y0171158
X0554295Y01712
X0540485Y0190842
X0548804Y02417
X0521214Y0241657
X0534994Y0261343
X0483616
X0497427Y02417
X0469837Y0241657
X0446049Y02417
X041846Y0241657
X0394672Y02417
X0367082Y0241657
X0380862Y0261343
X0432239
X0434735Y0190842
X0448545Y01712
X047383Y0171158
X050142Y01712
X048761Y0190842
X0484985Y0125842
X0432985
X0380985
X036808Y0171158
X039567Y01712
X0420955Y0171158
X038186Y0190842
X0328985
X0342795Y01712
X0315205Y0171158
X0328985Y0125842
X0315205Y0241657
X0342795Y02417
X0328985Y0261343
T05
X005189Y04755
X003811
T06
X0079945Y0469799
X0091756Y04735
X0103567
X0115378
X0127189
X0139
X0150811
X0162622
Y0485311
X0150811
X0139
X0127189
X0115378
X0103567
X0091756
X0174433Y0469799
T07
X01845Y0046
Y0056
Y0066
Y0076
Y0086
Y0096
Y0106
Y0116
X02845
Y0106
Y0096
Y0086
Y0076
Y0066
Y0056
Y0046
Y0126
Y0136
Y0146
Y0156
Y0166
Y0176
Y0186
Y0196
Y0206
Y0216
Y0226
X01845
Y0216
Y0206
Y0196
Y0186
Y0176
Y0166
Y0156
Y0146
Y0136
Y0126
X0421Y02905
Y03005
X0431
X0441
X0451
X0461
X0471
X0481
X0491
X0501
Y02905
X0491
X0481
X0471
X0461
X0451
X0441
X0431
X0511
Y03005
X0521
X0531
X0541
X0551
X0561
X0571
X0581
X0591
X0601
X0611
Y02905
X0601
X0591
X0581
X0571
X0561
X0551
X0541
X0531
X0521
T08
X0197736Y0488
X0207579
X0217421
X0227264
T09
X06665Y01215
X0666Y02405
X06525
X0653Y01215
T10
X0086122Y0036878
X0078248Y00605
X0086122Y0084122
X0134153
Y0036878
X0129654Y0130878
Y0178122
X0130654Y0223378
Y0270622
X0082622
X0074748Y0247
X0082622Y0223378
X0081622Y0178122
X0073748Y01545
X0081622Y0130878
X0082122Y0319378
X0074248Y0343
X0082122Y0366622
X0130154
Y0319378
T11
X0085461Y04035
X00955
X0105539
T12
X0259382Y0424921
X0369618Y0439921
Y0454921
Y0469921
X0259382Y0484921
Y0454921
T13
X0369618Y0424921
Y0484921
T14
X0044936Y0078622
X0039Y0125
X00395Y02175
X0039063Y0312878
X0036256Y0437
T15
X0044936Y0031378
X0039Y0172244
X00395Y0264744
X0039063Y0360122
X00835Y0437
T16
X04019Y02955
X06301Y04887
X04019Y04885
T17
X06302Y02955
T18
X0040999Y0055
X0042937Y0148622
X0043437Y0241122
X0043Y03365
X0059878Y0433063
M30
